\relax 
\providecommand\hyper@newdestlabel[2]{}
\providecommand*\new@tpo@label[2]{}
\providecommand\HyperFirstAtBeginDocument{\AtBeginDocument}
\HyperFirstAtBeginDocument{\ifx\hyper@anchor\@undefined
\global\let\oldcontentsline\contentsline
\gdef\contentsline#1#2#3#4{\oldcontentsline{#1}{#2}{#3}}
\global\let\oldnewlabel\newlabel
\gdef\newlabel#1#2{\newlabelxx{#1}#2}
\gdef\newlabelxx#1#2#3#4#5#6{\oldnewlabel{#1}{{#2}{#3}}}
\AtEndDocument{\ifx\hyper@anchor\@undefined
\let\contentsline\oldcontentsline
\let\newlabel\oldnewlabel
\fi}
\fi}
\global\let\hyper@last\relax 
\gdef\HyperFirstAtBeginDocument#1{#1}
\providecommand\HyField@AuxAddToFields[1]{}
\providecommand\HyField@AuxAddToCoFields[2]{}
\providecommand\BKM@entry[2]{}
\bibstyle{plain}
\BKM@entry{id=1,dest={73656374696F6E2E31},srcline={31}}{5C3337365C3337375C303030495C3030306E5C303030745C303030725C3030306F5C303030645C303030755C303030635C303030745C303030695C3030306F5C3030306E}
\BKM@entry{id=2,dest={73656374696F6E2E32},srcline={36}}{5C3337365C3337375C303030495C3030306E5C303030705C303030755C303030745C3030305C3034305C303030645C303030615C303030745C30303061}
\BKM@entry{id=3,dest={73656374696F6E2E33},srcline={57}}{5C3337365C3337375C3030304D5C303030655C303030745C303030685C3030306F5C303030645C30303073}
\BKM@entry{id=4,dest={73656374696F6E2E34},srcline={65}}{5C3337365C3337375C303030525C303030655C303030735C303030755C3030306C5C303030745C30303073}
\@writefile{toc}{\contentsline {section}{\numberline {1}Introduction}{1}{section.1}\protected@file@percent }
\@writefile{toc}{\contentsline {section}{\numberline {2}Input data}{1}{section.2}\protected@file@percent }
\@writefile{lof}{\contentsline {figure}{\numberline {1}{\ignorespaces Example of prepared data}}{1}{figure.1}\protected@file@percent }
\newlabel{fig:data}{{1}{1}{Example of prepared data}{figure.1}{}}
\@writefile{toc}{\contentsline {section}{\numberline {3}Methods}{1}{section.3}\protected@file@percent }
\@writefile{toc}{\contentsline {section}{\numberline {4}Results}{1}{section.4}\protected@file@percent }
\BKM@entry{id=5,dest={73656374696F6E2E35},srcline={88}}{5C3337365C3337375C303030435C3030306F5C3030306E5C303030635C3030306C5C303030755C303030735C303030695C3030306F5C3030306E}
\BKM@entry{id=6,dest={73656374696F6E2E36},srcline={95}}{5C3337365C3337375C303030525C303030655C303030665C303030655C303030725C303030655C3030306E5C303030635C303030655C30303073}
\citation{zizka}
\citation{liu2020roberta}
\bibstyle{plain-cz-online}
\bibdata{reference}
\@writefile{lof}{\contentsline {figure}{\numberline {2}{\ignorespaces Example of confusion matrix (tokenizer charBPE, 1000 bp long sequences, vocabulary size 5000 words)}}{2}{figure.2}\protected@file@percent }
\newlabel{fig:cm_BPE}{{2}{2}{Example of confusion matrix (tokenizer charBPE, 1000 bp long sequences, vocabulary size 5000 words)}{figure.2}{}}
\@writefile{lof}{\contentsline {figure}{\numberline {3}{\ignorespaces Example of ROC curve (tokenizer charBPE, 1000 bp long sequences, vocabulary size 5000 words)}}{2}{figure.3}\protected@file@percent }
\newlabel{fig:ROC}{{3}{2}{Example of ROC curve (tokenizer charBPE, 1000 bp long sequences, vocabulary size 5000 words)}{figure.3}{}}
\@writefile{toc}{\contentsline {section}{\numberline {5}Conclusion}{2}{section.5}\protected@file@percent }
\@writefile{toc}{\contentsline {section}{\numberline {6}References}{2}{section.6}\protected@file@percent }
\gdef \@abspage@last{2}
